…
    ## New names:
    ## Rows: 3220 Columns: 5
    ## ── Column specification
    ## ──────────────────────────────────────────────────────── Delimiter: "," chr
    ## (3): Geography, Geographic Area Name, Margin of Error!!Total dbl (1):
    ## Estimate!!Total lgl (1): ...5
    ## ℹ Use `spec()` to retrieve the full column specification for this data. ℹ
    ## Specify the column types or set `show_col_types = FALSE` to quiet this message.
    ## • `` -> `...5`

``` r
df_pop
```

    ## # A tibble: 3,220 × 5
    ##    Geography   `Geographic Area Name` population_estimate Margin of Error!!Tot…¹
    ##    <chr>       <chr>                                <dbl> <chr>                 
    ##  1 0500000US0… Autauga County, Alaba…               55200 *****                 
    ##  2 0500000US0… Baldwin County, Alaba…              208107 *****                 
    ##  3 0500000US0… Barbour County, Alaba…               25782 *****                 
    ##  4 0500000US0… Bibb County, Alabama                 22527 *****                 
    ##  5 0500000US0… Blount County, Alabama               57645 *****                 
    ##  6 0500000US0… Bullock County, Alaba…               10352 *****                 
    ##  7 0500000US0… Butler County, Alabama               20025 *****                 
    ##  8 0500000US0… Calhoun County, Alaba…              115098 *****                 
    ##  9 0500000US0… Chambers County, Alab…               33826 *****                 
    ## 10 0500000US0… Cherokee County, Alab…               25853 *****                 
    ## # ℹ 3,210 more rows
    ## # ℹ abbreviated name: ¹​`Margin of Error!!Total`
    ## # ℹ 1 more variable: ...5 <lgl>
…
    ## Rows: 3220 Columns: 243
    ## ── Column specification ────────────────────────────────────────────────────────
    ## Delimiter: ","
    ## chr  (66): Geography, Geographic Area Name, Estimate!!Median income (dollars...
    ## dbl (176): Estimate!!Number!!HOUSEHOLD INCOME BY RACE AND HISPANIC OR LATINO...
    ## lgl   (1): ...243
    ## 
    ## ℹ Use `spec()` to retrieve the full column specification for this data.
    ## ℹ Specify the column types or set `show_col_types = FALSE` to quiet this message.

``` r
df_income
```

    ## # A tibble: 3,220 × 243
    ##    Geography      `Geographic Area Name`   Estimate!!Number!!HOUSEHOLD INCOME …¹
    ##    <chr>          <chr>                                                    <dbl>
    ##  1 0500000US01001 Autauga County, Alabama                                  21115
    ##  2 0500000US01003 Baldwin County, Alabama                                  78622
    ##  3 0500000US01005 Barbour County, Alabama                                   9186
    ##  4 0500000US01007 Bibb County, Alabama                                      6840
    ##  5 0500000US01009 Blount County, Alabama                                   20600
    ##  6 0500000US01011 Bullock County, Alabama                                   3609
    ##  7 0500000US01013 Butler County, Alabama                                    6708
    ##  8 0500000US01015 Calhoun County, Alabama                                  45033
    ##  9 0500000US01017 Chambers County, Alabama                                 13516
    ## 10 0500000US01019 Cherokee County, Alabama                                 10606
    ## # ℹ 3,210 more rows
    ## # ℹ abbreviated name:
    ## #   ¹​`Estimate!!Number!!HOUSEHOLD INCOME BY RACE AND HISPANIC OR LATINO ORIGIN OF HOUSEHOLDER!!Households`
    ## # ℹ 240 more variables:
    ## #   `Margin of Error!!Number MOE!!HOUSEHOLD INCOME BY RACE AND HISPANIC OR LATINO ORIGIN OF HOUSEHOLDER!!Households` <dbl>,
    ## #   `Estimate!!Number!!HOUSEHOLD INCOME BY RACE AND HISPANIC OR LATINO ORIGIN OF HOUSEHOLDER!!Households!!One race--!!White` <dbl>,
    ## #   `Margin of Error!!Number MOE!!HOUSEHOLD INCOME BY RACE AND HISPANIC OR LATINO ORIGIN OF HOUSEHOLDER!!Households!!One race--!!White` <dbl>, …
…
# Identify counties where income decreases at any step (e.g. 4-person < 3-person)
df_income_decreasing <- df_income_wide %>%
  filter(`3-person families` < `2-person families` |
         `4-person families` < `3-person families` |
         `5-person families` < `4-person families` |
         `6-person families` < `5-person families`)

df_income_decreasing
```

    ## # A tibble: 2,391 × 6
    ##    geographic_area_name     `2-person families` `3-person families`
    ##    <chr>                                  <dbl>               <dbl>
    ##  1 Baldwin County, Alabama                63975               79390
    ##  2 Barbour County, Alabama                45231               41250
    ##  3 Bibb County, Alabama                   44738               62813
    ##  4 Blount County, Alabama                 50583               68903
    ##  5 Calhoun County, Alabama                51864               60712
    ##  6 Cherokee County, Alabama               48346               53452
    ##  7 Chilton County, Alabama                50199               53750
    ##  8 Choctaw County, Alabama                45026               40455
    ##  9 Clay County, Alabama                   41569               60224
    ## 10 Cleburne County, Alabama               47145               60028
    ## # ℹ 2,381 more rows
    ## # ℹ 3 more variables: `4-person families` <dbl>, `5-person families` <dbl>,
    ## #   `6-person families` <dbl>
…
